Tailwind 4309 Upper 0006 Lower
1.0000000 0.0009388
0.9989727 0.0011884
0.9958950 0.0018640
0.9907796 0.0029806
0.9836475 0.0045241
0.9745279 0.0064753
0.9634584 0.0088105
0.9504845 0.0115013
0.9356594 0.0145160
0.9190441 0.0178196
0.9007068 0.0213744
0.8807230 0.0251411
0.8591747 0.0290786
0.8361505 0.0331454
0.8117449 0.0372992
0.7860584 0.0414977
0.7591963 0.0456991
0.7312692 0.0498620
0.7023917 0.0539459
0.6726826 0.0579112
0.6422638 0.0617198
0.6112605 0.0653347
0.5798000 0.0687208
0.5480115 0.0718446
0.5160258 0.0746750
0.4839742 0.0771831
0.4519885 0.0793428
0.4202001 0.0811312
0.3887396 0.0825287
0.3577362 0.0835197
0.3273175 0.0840926
0.2976083 0.0842354
0.2687309 0.0836338
0.2408037 0.0820849
0.2139417 0.0796610
0.1882551 0.0764405
0.1638496 0.0725105
0.1408253 0.0679642
0.1192770 0.0629009
0.0992932 0.0574229
0.0809560 0.0516350
0.0643407 0.0456418
0.0495156 0.0395463
0.0365416 0.0334476
0.0254721 0.0274393
0.0163526 0.0216079
0.0092204 0.0160324
0.0041050 0.0107880
0.0010273 0.0059809
0.0000000 0.0000000
0.0010273 -.0028159
0.0041050 -.0055498
0.0092204 -.0081953
0.0163526 -.0107441
0.0254721 -.0131857
0.0365416 -.0155085
0.0495156 -.0176998
0.0643407 -.0197465
0.0809560 -.0216354
0.0992932 -.0233540
0.1192770 -.0248909
0.1408253 -.0262362
0.1638496 -.0273820
0.1882551 -.0283226
0.2139417 -.0290548
0.2408037 -.0295780
0.2687309 -.0298942
0.2976083 -.0300081
0.3273175 -.0299265
0.3577362 -.0296584
0.3887396 -.0292150
0.4202001 -.0286084
0.4519885 -.0278525
0.4839742 -.0269615
0.5160258 -.0259506
0.5480115 -.0248348
0.5798000 -.0236293
0.6112605 -.0223491
0.6422638 -.0210086
0.6726826 -.0196220
0.7023917 -.0182030
0.7312692 -.0167647
0.7591963 -.0153200
0.7860584 -.0138812
0.8117449 -.0124605
0.8361505 -.0110699
0.8591747 -.0097210
0.8807230 -.0084254
0.9007068 -.0071946
0.9190441 -.0060397
0.9356594 -.0049716
0.9504845 -.0040008
0.9634584 -.0031370
0.9745279 -.0023893
0.9836475 -.0017657
0.9907796 -.0012732
0.9958950 -.0009173
0.9989727 -.0007020
1.0000000 -.0006300
